[gd_scene load_steps=2 format=2]

[ext_resource path="res://images/tileset.tres" type="TileSet" id=1]

[node name="Node2D" type="Node2D"]

[node name="TileMap" type="TileMap" parent="."]
position = Vector2( 0, 128 )
tile_set = ExtResource( 1 )
cell_size = Vector2( 32, 32 )
format = 1
tile_data = PoolIntArray( -262144, 0, 65539, -262143, 0, 65539, -262142, 0, 65539, -262141, 0, 65539, -262140, 0, 65539, -262139, 0, 65539, -262138, 0, 65539, -262137, 0, 65539, -262136, 0, 65539, -262135, 0, 65539, -262134, 0, 65539, -262133, 0, 65539, -262132, 0, 65539, -262131, 0, 65539, -262130, 0, 65539, -262129, 0, 65539, -262128, 0, 65539, -262127, 0, 65539, -262126, 0, 65539, -262125, 0, 65540, -262124, 0, 0, -262123, 0, 0, -262122, 0, 131072, -262121, 0, 0, -262120, 0, 0, -262119, 0, 262144, -262118, 0, 0, -262117, 0, 0, -262116, 0, 131072, -262115, 0, 0, -262114, 0, 0, -262113, 0, 262149, -262112, 0, 65539, -262111, 0, 65539, -262110, 0, 65539, -262109, 0, 65539, -262108, 0, 65539, -262107, 0, 65539, -262106, 0, 65539, -262105, 0, 65539, -262104, 0, 65539, -262103, 0, 65539, -262102, 0, 65539, -262101, 0, 65539, -262100, 0, 65539, -262099, 0, 65539, -262098, 0, 65539, -262097, 0, 65539, -262096, 0, 65539, -262095, 0, 65539, -262087, 0, 65539, -262086, 0, 65539, -262085, 0, 262151, -196608, 0, 65539, -196607, 0, 65539, -196606, 0, 65539, -196605, 0, 65539, -196604, 0, 65539, -196603, 0, 65539, -196602, 0, 65539, -196601, 0, 65539, -196600, 0, 65539, -196599, 0, 65539, -196598, 0, 65539, -196597, 0, 65539, -196596, 0, 65539, -196595, 0, 65539, -196594, 0, 65539, -196593, 0, 65539, -196592, 0, 65539, -196591, 0, 65539, -196590, 0, 65539, -196589, 0, 65540, -196588, 0, 0, -196587, 0, 0, -196586, 0, 196608, -196585, 0, 0, -196584, 0, 0, -196583, 0, 262144, -196582, 0, 0, -196581, 0, 0, -196580, 0, 196608, -196579, 0, 0, -196578, 0, 0, -196577, 0, 262149, -196576, 0, 65539, -196575, 0, 65539, -196574, 0, 65539, -196573, 0, 65539, -196572, 0, 65539, -196571, 0, 65539, -196570, 0, 65539, -196569, 0, 65539, -196568, 0, 65539, -196567, 0, 65539, -196566, 0, 65539, -196565, 0, 65539, -196564, 0, 65539, -196563, 0, 65539, -196562, 0, 65539, -196561, 0, 65539, -196560, 0, 65539, -196559, 0, 65539, -196551, 0, 65539, -196550, 0, 65539, -196549, 0, 262151, -131072, 0, 65539, -131071, 0, 65539, -131070, 0, 65539, -131069, 0, 65539, -131068, 0, 65539, -131067, 0, 65539, -131066, 0, 65539, -131065, 0, 65539, -131064, 0, 65539, -131063, 0, 65539, -131062, 0, 65539, -131061, 0, 65539, -131060, 0, 65539, -131059, 0, 65539, -131058, 0, 65539, -131057, 0, 65539, -131056, 0, 65539, -131055, 0, 65539, -131054, 0, 65539, -131053, 0, 65540, -131052, 0, 0, -131051, 0, 0, -131050, 0, 131072, -131049, 0, 0, -131048, 0, 0, -131047, 0, 262144, -131046, 0, 0, -131045, 0, 0, -131044, 0, 131072, -131043, 0, 0, -131042, 0, 0, -131041, 0, 262149, -131040, 0, 65539, -131039, 0, 65539, -131038, 0, 65539, -131037, 0, 65539, -131036, 0, 65539, -131035, 0, 65539, -131034, 0, 65539, -131033, 0, 65539, -131032, 0, 65539, -131031, 0, 65539, -131030, 0, 65539, -131029, 0, 65539, -131028, 0, 65539, -131027, 0, 65539, -131026, 0, 65539, -131025, 0, 65539, -131024, 0, 65539, -131023, 0, 65539, -131015, 0, 65539, -131014, 0, 65539, -131013, 0, 262151, -65536, 0, 65539, -65535, 0, 65539, -65534, 0, 65539, -65533, 0, 65539, -65532, 0, 65539, -65531, 0, 65539, -65530, 0, 65539, -65529, 0, 65539, -65528, 0, 65539, -65527, 0, 65539, -65526, 0, 65539, -65525, 0, 65539, -65524, 0, 65539, -65523, 0, 65539, -65522, 0, 65539, -65521, 0, 65539, -65520, 0, 65539, -65519, 0, 65539, -65518, 0, 65539, -65517, 0, 65540, -65516, 0, 0, -65515, 0, 0, -65514, 0, 196608, -65513, 0, 0, -65512, 0, 0, -65511, 0, 262144, -65510, 0, 0, -65509, 0, 0, -65508, 0, 196608, -65507, 0, 0, -65506, 0, 0, -65505, 0, 262149, -65504, 0, 65539, -65503, 0, 65539, -65502, 0, 65539, -65501, 0, 65539, -65500, 0, 65539, -65499, 0, 65539, -65498, 0, 65539, -65497, 0, 65539, -65496, 0, 65539, -65495, 0, 65539, -65494, 0, 65539, -65493, 0, 65539, -65492, 0, 65539, -65491, 0, 65539, -65490, 0, 65539, -65489, 0, 65539, -65488, 0, 65539, -65487, 0, 65539, -65479, 0, 65539, -65478, 0, 65539, -65477, 0, 262151, 0, 0, 65539, 1, 0, 65539, 2, 0, 65539, 3, 0, 65539, 4, 0, 65539, 5, 0, 65539, 6, 0, 65539, 7, 0, 65539, 8, 0, 65539, 9, 0, 65539, 10, 0, 65539, 11, 0, 65539, 12, 0, 65539, 13, 0, 65539, 14, 0, 65539, 15, 0, 65539, 16, 0, 65539, 17, 0, 262147, 18, 0, 65539, 19, 0, 65540, 20, 0, 0, 21, 0, 65536, 22, 0, 131072, 23, 0, 0, 24, 0, 0, 25, 0, 262144, 26, 0, 0, 27, 0, 0, 28, 0, 131072, 29, 0, 65537, 30, 0, 0, 31, 0, 262149, 32, 0, 65539, 33, 0, 65539, 34, 0, 65539, 35, 0, 65539, 36, 0, 65539, 37, 0, 65539, 38, 0, 65539, 39, 0, 65539, 40, 0, 65539, 41, 0, 65539, 42, 0, 65539, 43, 0, 65539, 44, 0, 65539, 45, 0, 65539, 46, 0, 65539, 47, 0, 65539, 48, 0, 65539, 49, 0, 65539, 57, 0, 65539, 58, 0, 65539, 59, 0, 262151, 65536, 0, 65539, 65537, 0, 65539, 65538, 0, 65539, 65539, 0, 65539, 65540, 0, 65539, 65541, 0, 65539, 65542, 0, 65539, 65543, 0, 65539, 65544, 0, 65539, 65545, 0, 65539, 65546, 0, 65539, 65547, 0, 65539, 65548, 0, 65539, 65549, 0, 65539, 65550, 0, 65539, 65551, 0, 65539, 65552, 0, 65539, 65553, 0, 65539, 65554, 0, 65539, 65555, 0, 262148, 65556, 0, 0, 65557, 0, 0, 65558, 0, 196608, 65559, 0, 65537, 65560, 0, 0, 65561, 0, 262144, 65562, 0, 0, 65563, 0, 0, 65564, 0, 196608, 65565, 0, 0, 65566, 0, 0, 65567, 0, 262149, 65568, 0, 65539, 65569, 0, 65539, 65570, 0, 262147, 65571, 0, 65539, 65572, 0, 65539, 65573, 0, 65539, 65574, 0, 65539, 65575, 0, 65539, 65576, 0, 65539, 65577, 0, 65539, 65578, 0, 65539, 65579, 0, 65539, 65580, 0, 65539, 65581, 0, 65539, 65582, 0, 65539, 65583, 0, 262147, 65584, 0, 65539, 65585, 0, 65539, 65593, 0, 65539, 65594, 0, 65539, 65595, 0, 262151, 131072, 0, 65539, 131073, 0, 65539, 131074, 0, 65539, 131075, 0, 65539, 131076, 0, 65539, 131077, 0, 65539, 131078, 0, 65539, 131079, 0, 65539, 131080, 0, 262147, 131081, 0, 65539, 131082, 0, 65539, 131083, 0, 65539, 131084, 0, 65539, 131085, 0, 65539, 131086, 0, 65539, 131087, 0, 65539, 131088, 0, 65539, 131089, 0, 65539, 131090, 0, 65539, 131091, 0, 65540, 131092, 0, 0, 131093, 0, 0, 131094, 0, 131072, 131095, 0, 0, 131096, 0, 0, 131097, 0, 262144, 131098, 0, 0, 131099, 0, 65536, 131100, 0, 131072, 131101, 0, 0, 131102, 0, 0, 131103, 0, 262149, 131104, 0, 65539, 131105, 0, 65539, 131106, 0, 65539, 131107, 0, 65539, 131108, 0, 65539, 131109, 0, 65539, 131110, 0, 65539, 131111, 0, 65539, 131112, 0, 65539, 131113, 0, 65539, 131114, 0, 65539, 131115, 0, 65539, 131116, 0, 65539, 131117, 0, 65539, 131118, 0, 65539, 131119, 0, 65539, 131120, 0, 65539, 131121, 0, 65539, 131129, 0, 65539, 131130, 0, 65539, 131131, 0, 262151, 196608, 0, 65539, 196609, 0, 65539, 196610, 0, 65539, 196611, 0, 65539, 196612, 0, 65539, 196613, 0, 65539, 196614, 0, 65539, 196615, 0, 65539, 196616, 0, 65539, 196617, 0, 65539, 196618, 0, 65539, 196619, 0, 65539, 196620, 0, 65539, 196621, 0, 65539, 196622, 0, 65539, 196623, 0, 65539, 196624, 0, 65539, 196625, 0, 65539, 196626, 0, 65539, 196627, 0, 65540, 196628, 0, 65537, 196629, 0, 0, 196630, 0, 196608, 196631, 0, 0, 196632, 0, 0, 196633, 0, 262144, 196634, 0, 0, 196635, 0, 0, 196636, 0, 196608, 196637, 0, 0, 196638, 0, 0, 196639, 0, 262149, 196640, 0, 65539, 196641, 0, 65539, 196642, 0, 65539, 196643, 0, 65539, 196644, 0, 65539, 196645, 0, 65539, 196646, 0, 65539, 196647, 0, 65539, 196648, 0, 65539, 196649, 0, 262147, 196650, 0, 65539, 196651, 0, 65539, 196652, 0, 65539, 196653, 0, 65539, 196654, 0, 262147, 196655, 0, 65539, 196656, 0, 65539, 196657, 0, 65539, 196665, 0, 65539, 196666, 0, 65539, 196667, 0, 262151, 262144, 0, 65539, 262145, 0, 65539, 262146, 0, 65539, 262147, 0, 65539, 262148, 0, 65539, 262149, 0, 65539, 262150, 0, 65539, 262151, 0, 65539, 262152, 0, 65539, 262153, 0, 65539, 262154, 0, 65539, 262155, 0, 65539, 262156, 0, 65539, 262157, 0, 65539, 262158, 0, 65539, 262159, 0, 65539, 262160, 0, 65539, 262161, 0, 65539, 262162, 0, 65539, 262163, 0, 65540, 262164, 0, 0, 262165, 0, 0, 262166, 0, 131072, 262167, 0, 0, 262168, 0, 0, 262169, 0, 262144, 262170, 0, 0, 262171, 0, 0, 262172, 0, 131072, 262173, 0, 0, 262174, 0, 65537, 262175, 0, 262149, 262176, 0, 65539, 262177, 0, 65539, 262178, 0, 65539, 262179, 0, 65539, 262180, 0, 65539, 262181, 0, 65539, 262182, 0, 65539, 262183, 0, 65539, 262184, 0, 65539, 262185, 0, 65539, 262186, 0, 65539, 262187, 0, 65539, 262188, 0, 65539, 262189, 0, 65539, 262190, 0, 65539, 262191, 0, 65539, 262192, 0, 65539, 262193, 0, 65539, 262194, 0, 65539, 262195, 0, 65539, 262196, 0, 65539, 262197, 0, 65539, 262198, 0, 65539, 262199, 0, 65539, 262200, 0, 65539, 262201, 0, 65539, 262202, 0, 65539, 262203, 0, 262151, 327680, 0, 65539, 327681, 0, 65539, 327682, 0, 65539, 327683, 0, 65539, 327684, 0, 65539, 327685, 0, 65539, 327686, 0, 65539, 327687, 0, 65539, 327688, 0, 262147, 327689, 0, 65539, 327690, 0, 65539, 327691, 0, 65539, 327692, 0, 65539, 327693, 0, 65539, 327694, 0, 65539, 327695, 0, 65539, 327696, 0, 65539, 327697, 0, 65539, 327698, 0, 65539, 327699, 0, 262148, 327700, 0, 0, 327701, 0, 0, 327702, 0, 196608, 327703, 0, 0, 327704, 0, 0, 327705, 0, 262144, 327706, 0, 65537, 327707, 0, 0, 327708, 0, 196608, 327709, 0, 0, 327710, 0, 0, 327711, 0, 262149, 327712, 0, 65539, 327713, 0, 65539, 327714, 0, 65539, 327715, 0, 65539, 327716, 0, 262147, 327717, 0, 65539, 327718, 0, 65539, 327719, 0, 65539, 327720, 0, 65539, 327721, 0, 65539, 327722, 0, 65539, 327723, 0, 65539, 327724, 0, 65539, 327725, 0, 65539, 327726, 0, 65539, 327727, 0, 65539, 327728, 0, 65539, 327729, 0, 65539, 327730, 0, 65539, 327731, 0, 65539, 327732, 0, 65539, 327733, 0, 65539, 327734, 0, 65539, 327735, 0, 65539, 327736, 0, 65539, 327737, 0, 65539, 327738, 0, 65539, 327739, 0, 262151, 393216, 0, 65539, 393217, 0, 262147, 393218, 0, 65539, 393219, 0, 65539, 393220, 0, 65539, 393221, 0, 65539, 393222, 0, 65539, 393223, 0, 65539, 393224, 0, 65539, 393225, 0, 65539, 393226, 0, 65539, 393227, 0, 65539, 393228, 0, 65539, 393229, 0, 65539, 393230, 0, 65539, 393231, 0, 65539, 393232, 0, 262147, 393233, 0, 65539, 393234, 0, 65539, 393235, 0, 65540, 393236, 0, 0, 393237, 0, 0, 393238, 0, 131072, 393239, 0, 0, 393240, 0, 0, 393241, 0, 262144, 393242, 0, 0, 393243, 0, 0, 393244, 0, 131072, 393245, 0, 65536, 393246, 0, 0, 393247, 0, 262149, 393248, 0, 65539, 393249, 0, 65539, 393250, 0, 65539, 393251, 0, 65539, 393252, 0, 65539, 393253, 0, 65539, 393254, 0, 65539, 393255, 0, 65539, 393256, 0, 65539, 393257, 0, 65539, 393258, 0, 65539, 393259, 0, 65539, 393260, 0, 65539, 393261, 0, 65539, 393262, 0, 65539, 393263, 0, 65539, 393264, 0, 65539, 393265, 0, 65539, 393266, 0, 65539, 393267, 0, 65539, 393268, 0, 65539, 393269, 0, 65539, 393270, 0, 65539, 393271, 0, 65539, 393272, 0, 65539, 393273, 0, 65539, 393274, 0, 65539, 393275, 0, 262151, 458752, 0, 131075, 458753, 0, 131075, 458754, 0, 131075, 458755, 0, 131075, 458756, 0, 131075, 458757, 0, 131075, 458758, 0, 131075, 458759, 0, 327683, 458760, 0, 131075, 458761, 0, 131075, 458762, 0, 131075, 458763, 0, 131075, 458764, 0, 131075, 458765, 0, 131075, 458766, 0, 131075, 458767, 0, 327683, 458768, 0, 131075, 458769, 0, 327683, 458770, 0, 131075, 458771, 0, 131076, 458772, 0, 0, 458773, 0, 0, 458774, 0, 196608, 458775, 0, 0, 458776, 0, 0, 458777, 0, 262144, 458778, 0, 0, 458779, 0, 0, 458780, 0, 196608, 458781, 0, 0, 458782, 0, 0, 458783, 0, 327685, 458784, 0, 327686, 458785, 0, 327686, 458786, 0, 327686, 458787, 0, 327686, 458788, 0, 327686, 458789, 0, 327686, 458790, 0, 327686, 458791, 0, 327686, 458792, 0, 327686, 458793, 0, 327686, 458794, 0, 327686, 458795, 0, 327686, 458796, 0, 327686, 458797, 0, 327686, 458798, 0, 327686, 458799, 0, 327686, 458800, 0, 327686, 458801, 0, 327686, 458802, 0, 327686, 458803, 0, 327686, 458804, 0, 327686, 458805, 0, 327686, 458806, 0, 327686, 458807, 0, 327686, 458808, 0, 327686, 458809, 0, 327686, 458810, 0, 327686, 458811, 0, 327687, 524288, 0, 0, 524289, 0, 65537, 524290, 0, 0, 524291, 0, 0, 524292, 0, 0, 524293, 0, 0, 524294, 0, 0, 524295, 0, 0, 524296, 0, 0, 524297, 0, 65537, 524298, 0, 0, 524299, 0, 0, 524300, 0, 0, 524301, 0, 0, 524302, 0, 0, 524303, 0, 0, 524304, 0, 0, 524305, 0, 0, 524306, 0, 65536, 524307, 0, 0, 524308, 0, 0, 524309, 0, 0, 524310, 0, 0, 524311, 0, 0, 524312, 0, 0, 524313, 0, 0, 524314, 0, 0, 524315, 0, 65537, 524316, 0, 0, 524317, 0, 0, 524318, 0, 0, 524319, 0, 0, 524320, 0, 0, 524321, 0, 0, 524322, 0, 0, 524323, 0, 0, 524324, 0, 0, 524325, 0, 0, 524326, 0, 0, 524327, 0, 0, 524328, 0, 65536, 524329, 0, 0, 524330, 0, 0, 524331, 0, 0, 524332, 0, 0, 524333, 0, 0, 524334, 0, 0, 524335, 0, 65537, 524336, 0, 0, 524337, 0, 0, 589824, 0, 0, 589825, 0, 0, 589826, 0, 0, 589827, 0, 0, 589828, 0, 0, 589829, 0, 65536, 589830, 0, 0, 589831, 0, 0, 589832, 0, 0, 589833, 0, 0, 589834, 0, 0, 589835, 0, 0, 589836, 0, 0, 589837, 0, 65537, 589838, 0, 0, 589839, 0, 0, 589840, 0, 0, 589841, 0, 0, 589842, 0, 0, 589843, 0, 65537, 589844, 0, 0, 589845, 0, 65537, 589846, 0, 0, 589847, 0, 65536, 589848, 0, 0, 589849, 0, 0, 589850, 0, 0, 589851, 0, 0, 589852, 0, 0, 589853, 0, 0, 589854, 0, 0, 589855, 0, 0, 589856, 0, 0, 589857, 0, 0, 589858, 0, 0, 589859, 0, 0, 589860, 0, 0, 589861, 0, 0, 589862, 0, 0, 589863, 0, 65537, 589864, 0, 0, 589865, 0, 0, 589866, 0, 0, 589867, 0, 0, 589868, 0, 0, 589869, 0, 0, 589870, 0, 0, 589871, 0, 0, 589872, 0, 0, 589873, 0, 65537, 655360, 0, 131073, 655361, 0, 196609, 655362, 0, 131073, 655363, 0, 196609, 655364, 0, 131073, 655365, 0, 196609, 655366, 0, 131073, 655367, 0, 196609, 655368, 0, 131073, 655369, 0, 196609, 655370, 0, 131073, 655371, 0, 196609, 655372, 0, 131073, 655373, 0, 196609, 655374, 0, 131073, 655375, 0, 196609, 655376, 0, 131073, 655377, 0, 196609, 655378, 0, 131073, 655379, 0, 196609, 655380, 0, 0, 655381, 0, 0, 655382, 0, 0, 655383, 0, 0, 655384, 0, 0, 655385, 0, 0, 655386, 0, 0, 655387, 0, 0, 655388, 0, 0, 655389, 0, 0, 655390, 0, 0, 655391, 0, 131073, 655392, 0, 196609, 655393, 0, 131073, 655394, 0, 196609, 655395, 0, 131073, 655396, 0, 196609, 655397, 0, 131073, 655398, 0, 196609, 655399, 0, 131073, 655400, 0, 196609, 655401, 0, 131073, 655402, 0, 196609, 655403, 0, 131073, 655404, 0, 196609, 655405, 0, 131073, 655406, 0, 196609, 655407, 0, 131073, 655408, 0, 196609, 655409, 0, 131073, 720896, 0, 0, 720897, 0, 0, 720898, 0, 65537, 720899, 0, 0, 720900, 0, 0, 720901, 0, 0, 720902, 0, 65537, 720903, 0, 0, 720904, 0, 0, 720905, 0, 0, 720906, 0, 0, 720907, 0, 0, 720908, 0, 0, 720909, 0, 0, 720910, 0, 0, 720911, 0, 0, 720912, 0, 0, 720913, 0, 0, 720914, 0, 65536, 720915, 0, 65537, 720916, 0, 0, 720917, 0, 0, 720918, 0, 0, 720919, 0, 65537, 720920, 0, 0, 720921, 0, 0, 720922, 0, 0, 720923, 0, 0, 720924, 0, 65536, 720925, 0, 0, 720926, 0, 0, 720927, 0, 0, 720928, 0, 65536, 720929, 0, 0, 720930, 0, 0, 720931, 0, 0, 720932, 0, 0, 720933, 0, 0, 720934, 0, 0, 720935, 0, 0, 720936, 0, 0, 720937, 0, 0, 720938, 0, 0, 720939, 0, 0, 720940, 0, 0, 720941, 0, 0, 720942, 0, 0, 720943, 0, 0, 720944, 0, 0, 720945, 0, 0, 786432, 0, 0, 786433, 0, 65536, 786434, 0, 0, 786435, 0, 0, 786436, 0, 65537, 786437, 0, 0, 786438, 0, 0, 786439, 0, 0, 786440, 0, 0, 786441, 0, 0, 786442, 0, 0, 786443, 0, 0, 786444, 0, 65537, 786445, 0, 0, 786446, 0, 0, 786447, 0, 0, 786448, 0, 0, 786449, 0, 0, 786450, 0, 0, 786451, 0, 0, 786452, 0, 0, 786453, 0, 0, 786454, 0, 0, 786455, 0, 0, 786456, 0, 0, 786457, 0, 0, 786458, 0, 0, 786459, 0, 0, 786460, 0, 0, 786461, 0, 0, 786462, 0, 0, 786463, 0, 0, 786464, 0, 0, 786465, 0, 0, 786466, 0, 0, 786467, 0, 0, 786468, 0, 0, 786469, 0, 0, 786470, 0, 0, 786471, 0, 0, 786472, 0, 0, 786473, 0, 0, 786474, 0, 0, 786475, 0, 0, 786476, 0, 65536, 786477, 0, 0, 786478, 0, 0, 786479, 0, 0, 786480, 0, 0, 786481, 0, 65537, 851968, 0, 131073, 851969, 0, 196609, 851970, 0, 131073, 851971, 0, 196609, 851972, 0, 131073, 851973, 0, 196609, 851974, 0, 131073, 851975, 0, 196609, 851976, 0, 131073, 851977, 0, 196609, 851978, 0, 131073, 851979, 0, 196609, 851980, 0, 131073, 851981, 0, 196609, 851982, 0, 131073, 851983, 0, 196609, 851984, 0, 131073, 851985, 0, 196609, 851986, 0, 131073, 851987, 0, 196609, 851988, 0, 0, 851989, 0, 65536, 851990, 0, 0, 851991, 0, 0, 851992, 0, 0, 851993, 0, 0, 851994, 0, 0, 851995, 0, 65536, 851996, 0, 0, 851997, 0, 0, 851998, 0, 0, 851999, 0, 131073, 852000, 0, 196609, 852001, 0, 131073, 852002, 0, 196609, 852003, 0, 131073, 852004, 0, 196609, 852005, 0, 131073, 852006, 0, 196609, 852007, 0, 131073, 852008, 0, 196609, 852009, 0, 131073, 852010, 0, 196609, 852011, 0, 131073, 852012, 0, 196609, 852013, 0, 131073, 852014, 0, 196609, 852015, 0, 131073, 852016, 0, 196609, 852017, 0, 131073, 917504, 0, 0, 917505, 0, 0, 917506, 0, 0, 917507, 0, 0, 917508, 0, 0, 917509, 0, 0, 917510, 0, 0, 917511, 0, 0, 917512, 0, 65536, 917513, 0, 0, 917514, 0, 0, 917515, 0, 0, 917516, 0, 0, 917517, 0, 0, 917518, 0, 0, 917519, 0, 0, 917520, 0, 0, 917521, 0, 0, 917522, 0, 65537, 917523, 0, 0, 917524, 0, 0, 917525, 0, 0, 917526, 0, 0, 917527, 0, 0, 917528, 0, 0, 917529, 0, 0, 917530, 0, 0, 917531, 0, 0, 917532, 0, 0, 917533, 0, 0, 917534, 0, 0, 917535, 0, 65537, 917536, 0, 0, 917537, 0, 0, 917538, 0, 0, 917539, 0, 0, 917540, 0, 0, 917541, 0, 0, 917542, 0, 0, 917543, 0, 0, 917544, 0, 0, 917545, 0, 65537, 917546, 0, 65536, 917547, 0, 0, 917548, 0, 0, 917549, 0, 0, 917550, 0, 0, 917551, 0, 0, 917552, 0, 0, 917553, 0, 0, 983040, 0, 0, 983041, 0, 0, 983042, 0, 0, 983043, 0, 0, 983044, 0, 0, 983045, 0, 0, 983046, 0, 0, 983047, 0, 0, 983048, 0, 0, 983049, 0, 0, 983050, 0, 0, 983051, 0, 65537, 983052, 0, 0, 983053, 0, 0, 983054, 0, 0, 983055, 0, 65536, 983056, 0, 0, 983057, 0, 0, 983058, 0, 0, 983059, 0, 0, 983060, 0, 0, 983061, 0, 0, 983062, 0, 0, 983063, 0, 0, 983064, 0, 0, 983065, 0, 0, 983066, 0, 0, 983067, 0, 0, 983068, 0, 0, 983069, 0, 0, 983070, 0, 0, 983071, 0, 0, 983072, 0, 0, 983073, 0, 0, 983074, 0, 0, 983075, 0, 0, 983076, 0, 0, 983077, 0, 0, 983078, 0, 0, 983079, 0, 0, 983080, 0, 0, 983081, 0, 0, 983082, 0, 0, 983083, 0, 0, 983084, 0, 0, 983085, 0, 0, 983086, 0, 65537, 983087, 0, 0, 983088, 0, 0, 983089, 0, 0, 1048576, 0, 262145, 1048577, 0, 262145, 1048578, 0, 262145, 1048579, 0, 262145, 1048580, 0, 262145, 1048581, 0, 262145, 1048582, 0, 262145, 1048583, 0, 262145, 1048584, 0, 262145, 1048585, 0, 262145, 1048586, 0, 262145, 1048587, 0, 262145, 1048588, 0, 262145, 1048589, 0, 262145, 1048590, 0, 262145, 1048591, 0, 262145, 1048592, 0, 262145, 1048593, 0, 262145, 1048594, 0, 262145, 1048595, 0, 262145, 1048596, 0, 0, 1048597, 0, 0, 1048598, 0, 0, 1048599, 0, 0, 1048600, 0, 0, 1048601, 0, 1, 1048602, 0, 0, 1048603, 0, 0, 1048604, 0, 0, 1048605, 0, 65537, 1048606, 0, 0, 1048607, 0, 262145, 1048608, 0, 262145, 1048609, 0, 262145, 1048610, 0, 262145, 1048611, 0, 262145, 1048612, 0, 262145, 1048613, 0, 262145, 1048614, 0, 262145, 1048615, 0, 262145, 1048616, 0, 262145, 1048617, 0, 262145, 1048618, 0, 262145, 1048619, 0, 262145, 1048620, 0, 262145, 1048621, 0, 262145, 1048622, 0, 262145, 1048623, 0, 262145, 1048624, 0, 262145, 1048625, 0, 262145, 1114112, 0, 0, 1114113, 0, 0, 1114114, 0, 0, 1114115, 0, 65537, 1114116, 0, 65536, 1114117, 0, 0, 1114118, 0, 0, 1114119, 0, 0, 1114120, 0, 0, 1114121, 0, 0, 1114122, 0, 0, 1114123, 0, 0, 1114124, 0, 0, 1114125, 0, 0, 1114126, 0, 0, 1114127, 0, 65537, 1114128, 0, 0, 1114129, 0, 0, 1114130, 0, 0, 1114131, 0, 0, 1114132, 0, 0, 1114133, 0, 65536, 1114134, 0, 0, 1114135, 0, 0, 1114136, 0, 0, 1114137, 0, 0, 1114138, 0, 0, 1114139, 0, 0, 1114140, 0, 0, 1114141, 0, 0, 1114142, 0, 0, 1114143, 0, 0, 1114144, 0, 0, 1114145, 0, 0, 1114146, 0, 65536, 1114147, 0, 0, 1114148, 0, 0, 1114149, 0, 0, 1114150, 0, 0, 1114151, 0, 0, 1114152, 0, 0, 1114153, 0, 0, 1114154, 0, 0, 1114155, 0, 0, 1114156, 0, 0, 1114157, 0, 0, 1114158, 0, 0, 1114159, 0, 0, 1114160, 0, 0, 1114161, 0, 0, 1179648, 0, 0, 1179649, 0, 0, 1179650, 0, 0, 1179651, 0, 0, 1179652, 0, 0, 1179653, 0, 0, 1179654, 0, 0, 1179655, 0, 65537, 1179656, 0, 0, 1179657, 0, 0, 1179658, 0, 0, 1179659, 0, 0, 1179660, 0, 0, 1179661, 0, 0, 1179662, 0, 0, 1179663, 0, 0, 1179664, 0, 0, 1179665, 0, 65536, 1179666, 0, 0, 1179667, 0, 0, 1179668, 0, 0, 1179669, 0, 0, 1179670, 0, 0, 1179671, 0, 65537, 1179672, 0, 0, 1179673, 0, 0, 1179674, 0, 0, 1179675, 0, 0, 1179676, 0, 0, 1179677, 0, 0, 1179678, 0, 0, 1179679, 0, 0, 1179680, 0, 0, 1179681, 0, 0, 1179682, 0, 0, 1179683, 0, 0, 1179684, 0, 65537, 1179685, 0, 0, 1179686, 0, 0, 1179687, 0, 0, 1179688, 0, 0, 1179689, 0, 0, 1179690, 0, 0, 1179691, 0, 0, 1179692, 0, 0, 1179693, 0, 65536, 1179694, 0, 0, 1179695, 0, 0, 1179696, 0, 0, 1179697, 0, 0, 1245184, 0, 131073, 1245185, 0, 196609, 1245186, 0, 131073, 1245187, 0, 196609, 1245188, 0, 131073, 1245189, 0, 196609, 1245190, 0, 131073, 1245191, 0, 196609, 1245192, 0, 131073, 1245193, 0, 196609, 1245194, 0, 131073, 1245195, 0, 196609, 1245196, 0, 131073, 1245197, 0, 196609, 1245198, 0, 131073, 1245199, 0, 196609, 1245200, 0, 131073, 1245201, 0, 196609, 1245202, 0, 131073, 1245203, 0, 196609, 1245204, 0, 0, 1245205, 0, 0, 1245206, 0, 0, 1245207, 0, 0, 1245208, 0, 0, 1245209, 0, 0, 1245210, 0, 65537, 1245211, 0, 0, 1245212, 0, 65536, 1245213, 0, 0, 1245214, 0, 0, 1245215, 0, 131073, 1245216, 0, 196609, 1245217, 0, 131073, 1245218, 0, 196609, 1245219, 0, 131073, 1245220, 0, 196609, 1245221, 0, 131073, 1245222, 0, 196609, 1245223, 0, 131073, 1245224, 0, 196609, 1245225, 0, 131073, 1245226, 0, 196609, 1245227, 0, 131073, 1245228, 0, 196609, 1245229, 0, 131073, 1245230, 0, 196609, 1245231, 0, 131073, 1245232, 0, 196609, 1245233, 0, 131073, 1310720, 0, 0, 1310721, 0, 0, 1310722, 0, 65537, 1310723, 0, 0, 1310724, 0, 0, 1310725, 0, 0, 1310726, 0, 0, 1310727, 0, 0, 1310728, 0, 0, 1310729, 0, 0, 1310730, 0, 0, 1310731, 0, 0, 1310732, 0, 65536, 1310733, 0, 0, 1310734, 0, 0, 1310735, 0, 0, 1310736, 0, 0, 1310737, 0, 0, 1310738, 0, 0, 1310739, 0, 0, 1310740, 0, 0, 1310741, 0, 0, 1310742, 0, 0, 1310743, 0, 0, 1310744, 0, 0, 1310745, 0, 0, 1310746, 0, 0, 1310747, 0, 0, 1310748, 0, 0, 1310749, 0, 0, 1310750, 0, 65536, 1310751, 0, 0, 1310752, 0, 0, 1310753, 0, 0, 1310754, 0, 0, 1310755, 0, 0, 1310756, 0, 0, 1310757, 0, 0, 1310758, 0, 0, 1310759, 0, 0, 1310760, 0, 0, 1310761, 0, 0, 1310762, 0, 0, 1310763, 0, 0, 1310764, 0, 0, 1310765, 0, 0, 1310766, 0, 0, 1310767, 0, 0, 1310768, 0, 0, 1310769, 0, 0, 1376256, 0, 0, 1376257, 0, 0, 1376258, 0, 0, 1376259, 0, 0, 1376260, 0, 0, 1376261, 0, 0, 1376262, 0, 0, 1376263, 0, 0, 1376264, 0, 0, 1376265, 0, 65537, 1376266, 0, 0, 1376267, 0, 0, 1376268, 0, 0, 1376269, 0, 0, 1376270, 0, 65537, 1376271, 0, 0, 1376272, 0, 0, 1376273, 0, 0, 1376274, 0, 0, 1376275, 0, 0, 1376276, 0, 0, 1376277, 0, 0, 1376278, 0, 0, 1376279, 0, 0, 1376280, 0, 0, 1376281, 0, 0, 1376282, 0, 0, 1376283, 0, 0, 1376284, 0, 0, 1376285, 0, 0, 1376286, 0, 0, 1376287, 0, 0, 1376288, 0, 0, 1376289, 0, 0, 1376290, 0, 0, 1376291, 0, 0, 1376292, 0, 0, 1376293, 0, 0, 1376294, 0, 65536, 1376295, 0, 0, 1376296, 0, 0, 1376297, 0, 0, 1376298, 0, 0, 1376299, 0, 0, 1376300, 0, 0, 1376301, 0, 0, 1376302, 0, 0, 1376303, 0, 0, 1376304, 0, 0, 1376305, 0, 0, 1441792, 0, 131073, 1441793, 0, 196609, 1441794, 0, 131073, 1441795, 0, 196609, 1441796, 0, 131073, 1441797, 0, 196609, 1441798, 0, 131073, 1441799, 0, 196609, 1441800, 0, 131073, 1441801, 0, 196609, 1441802, 0, 131073, 1441803, 0, 196609, 1441804, 0, 131073, 1441805, 0, 196609, 1441806, 0, 131073, 1441807, 0, 196609, 1441808, 0, 131073, 1441809, 0, 196609, 1441810, 0, 131073, 1441811, 0, 196609, 1441812, 0, 0, 1441813, 0, 65536, 1441814, 0, 0, 1441815, 0, 0, 1441816, 0, 0, 1441817, 0, 0, 1441818, 0, 0, 1441819, 0, 0, 1441820, 0, 0, 1441821, 0, 0, 1441822, 0, 0, 1441823, 0, 131073, 1441824, 0, 196609, 1441825, 0, 131073, 1441826, 0, 196609, 1441827, 0, 131073, 1441828, 0, 196609, 1441829, 0, 131073, 1441830, 0, 196609, 1441831, 0, 131073, 1441832, 0, 196609, 1441833, 0, 131073, 1441834, 0, 196609, 1441835, 0, 131073, 1441836, 0, 196609, 1441837, 0, 131073, 1441838, 0, 196609, 1441839, 0, 131073, 1441840, 0, 196609, 1441841, 0, 131073, 1507328, 0, 65537, 1507329, 0, 0, 1507330, 0, 0, 1507331, 0, 0, 1507332, 0, 0, 1507333, 0, 0, 1507334, 0, 0, 1507335, 0, 0, 1507336, 0, 0, 1507337, 0, 0, 1507338, 0, 0, 1507339, 0, 0, 1507340, 0, 65537, 1507341, 0, 0, 1507342, 0, 0, 1507343, 0, 0, 1507344, 0, 0, 1507345, 0, 0, 1507346, 0, 0, 1507347, 0, 0, 1507348, 0, 0, 1507349, 0, 0, 1507350, 0, 0, 1507351, 0, 0, 1507352, 0, 0, 1507353, 0, 0, 1507354, 0, 0, 1507355, 0, 0, 1507356, 0, 0, 1507357, 0, 0, 1507358, 0, 0, 1507359, 0, 65537, 1507360, 0, 0, 1507361, 0, 65536, 1507362, 0, 0, 1507363, 0, 0, 1507364, 0, 0, 1507365, 0, 0, 1507366, 0, 0, 1507367, 0, 0, 1507368, 0, 0, 1507369, 0, 0, 1507370, 0, 65536, 1507371, 0, 0, 1507372, 0, 0, 1507373, 0, 65537, 1507374, 0, 0, 1507375, 0, 0, 1507376, 0, 0, 1507377, 0, 0, 1572864, 0, 0, 1572865, 0, 0, 1572866, 0, 0, 1572867, 0, 0, 1572868, 0, 0, 1572869, 0, 0, 1572870, 0, 0, 1572871, 0, 0, 1572872, 0, 0, 1572873, 0, 0, 1572874, 0, 0, 1572875, 0, 0, 1572876, 0, 0, 1572877, 0, 0, 1572878, 0, 0, 1572879, 0, 0, 1572880, 0, 65537, 1572881, 0, 0, 1572882, 0, 0, 1572883, 0, 0, 1572884, 0, 65537, 1572885, 0, 0, 1572886, 0, 0, 1572887, 0, 65537, 1572888, 0, 0, 1572889, 0, 0, 1572890, 0, 0, 1572891, 0, 0, 1572892, 0, 0, 1572893, 0, 0, 1572894, 0, 0, 1572895, 0, 0, 1572896, 0, 0, 1572897, 0, 0, 1572898, 0, 0, 1572899, 0, 0, 1572900, 0, 0, 1572901, 0, 0, 1572902, 0, 0, 1572903, 0, 0, 1572904, 0, 0, 1572905, 0, 0, 1572906, 0, 0, 1572907, 0, 0, 1572908, 0, 0, 1572909, 0, 0, 1572910, 0, 0, 1572911, 0, 65537, 1572912, 0, 0, 1572913, 0, 0, 1638400, 0, 3, 1638401, 0, 3, 1638402, 0, 196611, 1638403, 0, 3, 1638404, 0, 3, 1638405, 0, 3, 1638406, 0, 3, 1638407, 0, 3, 1638408, 0, 196611, 1638409, 0, 3, 1638410, 0, 3, 1638411, 0, 3, 1638412, 0, 3, 1638413, 0, 3, 1638414, 0, 3, 1638415, 0, 196611, 1638416, 0, 3, 1638417, 0, 3, 1638418, 0, 3, 1638419, 0, 4, 1638420, 0, 0, 1638421, 0, 0, 1638422, 0, 131072, 1638423, 0, 0, 1638424, 0, 0, 1638425, 0, 262144, 1638426, 0, 0, 1638427, 0, 0, 1638428, 0, 131072, 1638429, 0, 0, 1638430, 0, 65537, 1638431, 0, 196610, 1638432, 0, 3, 1638433, 0, 3, 1638434, 0, 196611, 1638435, 0, 3, 1638436, 0, 3, 1638437, 0, 3, 1638438, 0, 3, 1638439, 0, 3, 1638440, 0, 3, 1638441, 0, 3, 1638442, 0, 3, 1638443, 0, 196611, 1638444, 0, 3, 1638445, 0, 196611, 1638446, 0, 3, 1638447, 0, 3, 1638448, 0, 196611, 1638449, 0, 3, 1769471, 0, 720898, 1703936, 0, 65539, 1703937, 0, 65539, 1703938, 0, 65539, 1703939, 0, 65539, 1703940, 0, 65539, 1703941, 0, 65539, 1703942, 0, 65539, 1703943, 0, 65539, 1703944, 0, 65539, 1703945, 0, 65539, 1703946, 0, 65539, 1703947, 0, 65539, 1703948, 0, 65539, 1703949, 0, 65539, 1703950, 0, 65539, 1703951, 0, 65539, 1703952, 0, 65539, 1703953, 0, 65539, 1703954, 0, 65539, 1703955, 0, 65540, 1703956, 0, 0, 1703957, 0, 65537, 1703958, 0, 196608, 1703959, 0, 0, 1703960, 0, 0, 1703961, 0, 262144, 1703962, 0, 0, 1703963, 0, 0, 1703964, 0, 196608, 1703965, 0, 0, 1703966, 0, 0, 1703967, 0, 65538, 1703968, 0, 65539, 1703969, 0, 65539, 1703970, 0, 65539, 1703971, 0, 65539, 1703972, 0, 65539, 1703973, 0, 65539, 1703974, 0, 65539, 1703975, 0, 65539, 1703976, 0, 65539, 1703977, 0, 65539, 1703978, 0, 65539, 1703979, 0, 65539, 1703980, 0, 65539, 1703981, 0, 65539, 1703982, 0, 65539, 1703983, 0, 65539, 1703984, 0, 65539, 1703985, 0, 65539, 1835005, 0, 720898, 1835006, 0, 720898, 1835007, 0, 720898, 1769472, 0, 720898, 1769473, 0, 720898, 1769474, 0, 720898, 1769475, 0, 720898, 1769476, 0, 720898, 1769477, 0, 720898, 1769478, 0, 720898, 1769479, 0, 720898, 1769480, 0, 720898, 1769481, 0, 720898, 1769482, 0, 720898, 1769483, 0, 720898, 1769484, 0, 720898, 1769485, 0, 720898, 1769486, 0, 720898, 1769487, 0, 720898, 1769488, 0, 720898, 1769489, 0, 720898, 1769490, 0, 720898, 1769491, 0, 720898, 1769492, 0, 720898, 1769493, 0, 720898, 1769494, 0, 720898, 1769495, 0, 720898, 1769496, 0, 720898, 1769497, 0, 720898, 1769498, 0, 720898, 1769499, 0, 720898, 1769500, 0, 720898, 1769501, 0, 720898, 1769502, 0, 720898, 1769503, 0, 720898, 1769504, 0, 720898, 1769505, 0, 720898, 1769506, 0, 720898, 1769507, 0, 720898, 1769508, 0, 720898, 1769509, 0, 720898, 1769510, 0, 720898, 1769511, 0, 720898, 1769512, 0, 720898, 1769513, 0, 720898, 1769514, 0, 720898, 1769515, 0, 720898, 1769516, 0, 720898, 1769517, 0, 720898, 1769518, 0, 720898, 1769519, 0, 720898, 1769520, 0, 720898, 1769521, 0, 720898, 1769522, 0, 720898, 1769523, 0, 720898, 1900541, 0, 720898, 1900542, 0, 720898, 1900543, 0, 720898, 1835008, 0, 720898, 1835009, 0, 720898, 1835010, 0, 720898, 1835011, 0, 720898, 1835012, 0, 720898, 1835013, 0, 720898, 1835014, 0, 720898, 1835015, 0, 720898, 1835016, 0, 720898, 1835017, 0, 720898, 1835018, 0, 720898, 1835019, 0, 720898, 1835020, 0, 720898, 1835021, 0, 720898, 1835022, 0, 720898, 1835023, 0, 720898, 1835024, 0, 720898, 1835025, 0, 720898, 1835026, 0, 720898, 1835027, 0, 720898, 1835028, 0, 720898, 1835029, 0, 720898, 1835030, 0, 720898, 1835031, 0, 720898, 1835032, 0, 720898, 1835033, 0, 720898, 1835034, 0, 720898, 1835035, 0, 720898, 1835036, 0, 720898, 1835037, 0, 720898, 1835038, 0, 720898, 1835039, 0, 720898, 1835040, 0, 720898, 1835041, 0, 720898, 1835042, 0, 720898, 1835043, 0, 720898, 1835044, 0, 720898, 1835045, 0, 720898, 1835046, 0, 720898, 1835047, 0, 720898, 1835048, 0, 720898, 1835049, 0, 720898, 1835050, 0, 720898, 1835051, 0, 720898, 1835052, 0, 720898, 1835053, 0, 720898, 1835054, 0, 720898, 1835055, 0, 720898, 1835056, 0, 720898, 1835057, 0, 720898, 1835058, 0, 720898, 1835059, 0, 720898, 1966078, 0, 720898, 1966079, 0, 720898, 1900544, 0, 720898, 1900545, 0, 720898, 1900546, 0, 720898, 1900547, 0, 720898, 1900548, 0, 720898, 1900549, 0, 720898, 1900550, 0, 720898, 1900551, 0, 720898, 1900552, 0, 720898, 1900553, 0, 720898, 1900554, 0, 720898, 1900555, 0, 720898, 1900556, 0, 720898, 1900557, 0, 131077, 1900558, 0, 131077, 1900559, 0, 131077, 1900560, 0, 720898, 1900561, 0, 720898, 1900562, 0, 720898, 1900563, 0, 720898, 1900564, 0, 720898, 1900565, 0, 720898, 1900566, 0, 720898, 1900567, 0, 720898, 1900568, 0, 720898, 1900569, 0, 720898, 1900570, 0, 720898, 1900571, 0, 720898, 1900572, 0, 720898, 1900573, 0, 720898, 1900574, 0, 720898, 1900575, 0, 720898, 1900576, 0, 720898, 1900577, 0, 720898, 1900578, 0, 720898, 1900579, 0, 720898, 1900580, 0, 720898, 1900581, 0, 720898, 1900582, 0, 720898, 1900583, 0, 720898, 1900584, 0, 720898, 1900585, 0, 720898, 1900586, 0, 720898, 1900587, 0, 720898, 1900588, 0, 720898, 1900589, 0, 720898, 1900590, 0, 720898, 1900591, 0, 720898, 1900592, 0, 720898, 1900593, 0, 720898, 1900594, 0, 720898, 2031614, 0, 720898, 2031615, 0, 720898, 1966080, 0, 720898, 1966081, 0, 720898, 1966082, 0, 720898, 1966083, 0, 720898, 1966084, 0, 720898, 1966085, 0, 720898, 1966086, 0, 720898, 1966087, 0, 720898, 1966088, 0, 720898, 1966089, 0, 720898, 1966090, 0, 720898, 1966091, 0, 720898, 1966092, 0, 720898, 1966093, 0, 720898, 1966094, 0, 720898, 1966095, 0, 720898, 1966096, 0, 720898, 1966097, 0, 720898, 1966098, 0, 720898, 1966099, 0, 720898, 1966100, 0, 720898, 1966101, 0, 720898, 1966102, 0, 720898, 1966103, 0, 720898, 1966104, 0, 720898, 1966105, 0, 720898, 1966106, 0, 720898, 1966107, 0, 720898, 1966108, 0, 720898, 1966109, 0, 720898, 1966110, 0, 720898, 1966111, 0, 720898, 1966112, 0, 720898, 1966113, 0, 720898, 1966114, 0, 720898, 1966115, 0, 720898, 1966116, 0, 720898, 1966117, 0, 720898, 1966118, 0, 720898, 1966119, 0, 720898, 1966120, 0, 720898, 1966121, 0, 720898, 1966122, 0, 720898, 1966123, 0, 720898, 1966124, 0, 720898, 1966125, 0, 720898, 1966126, 0, 720898, 1966127, 0, 720898, 1966128, 0, 720898, 1966129, 0, 720898, 1966130, 0, 720898, 2097148, 0, 131077, 2097149, 0, 131077, 2097150, 0, 131077, 2097151, 0, 131077, 2031616, 0, 131077, 2031617, 0, 131077, 2031618, 0, 131077, 2031619, 0, 131077, 2031620, 0, 131077, 2031621, 0, 131077, 2031622, 0, 131077, 2031623, 0, 131077, 2031624, 0, 131077, 2031625, 0, 131077, 2031626, 0, 131077, 2031627, 0, 720898, 2031628, 0, 720898, 2031629, 0, 720898, 2031630, 0, 720898, 2031631, 0, 720898, 2031632, 0, 720898, 2031633, 0, 720898, 2031634, 0, 720898, 2031635, 0, 720898, 2031636, 0, 720898, 2031637, 0, 720898, 2031638, 0, 720898, 2031639, 0, 720898, 2031640, 0, 720898, 2031641, 0, 720898, 2031642, 0, 720898, 2031643, 0, 720898, 2031644, 0, 720898, 2031645, 0, 720898, 2031646, 0, 720898, 2031647, 0, 131077, 2031648, 0, 720898, 2031649, 0, 720898, 2031650, 0, 720898, 2031651, 0, 720898, 2031652, 0, 720898, 2031653, 0, 720898, 2031654, 0, 720898, 2031655, 0, 720898, 2031656, 0, 720898, 2031657, 0, 720898, 2031658, 0, 720898, 2031659, 0, 720898, 2031660, 0, 720898, 2031661, 0, 720898, 2031662, 0, 720898, 2031663, 0, 720898, 2031664, 0, 720898, 2031665, 0, 720898, 2031666, 0, 720898, 2031667, 0, 720898, 2031668, 0, 720898, 2031669, 0, 720898, 2031670, 0, 720898, 2162682, 0, 131077, 2162683, 0, 131077, 2162684, 0, 131077, 2162685, 0, 131077, 2162686, 0, 131077, 2162687, 0, 131077, 2097152, 0, 131077, 2097153, 0, 131077, 2097154, 0, 131077, 2097155, 0, 131077, 2097156, 0, 131077, 2097157, 0, 131077, 2097158, 0, 131077, 2097159, 0, 131077, 2097160, 0, 131077, 2097161, 0, 131077, 2097162, 0, 131077, 2097163, 0, 131077, 2097164, 0, 131077, 2097165, 0, 720898, 2097166, 0, 720898, 2097167, 0, 720898, 2097168, 0, 720898, 2097169, 0, 720898, 2097170, 0, 720898, 2097171, 0, 720898, 2097172, 0, 720898, 2097173, 0, 720898, 2097174, 0, 720898, 2097175, 0, 720898, 2097176, 0, 720898, 2097177, 0, 720898, 2097178, 0, 720898, 2097179, 0, 720898, 2097180, 0, 720898, 2097181, 0, 720898, 2097182, 0, 720898, 2097183, 0, 720898, 2097184, 0, 720898, 2097185, 0, 720898, 2097186, 0, 720898, 2097187, 0, 720898, 2097188, 0, 720898, 2097189, 0, 720898, 2097190, 0, 720898, 2097191, 0, 720898, 2097192, 0, 720898, 2097193, 0, 720898, 2097194, 0, 720898, 2097195, 0, 720898, 2097196, 0, 720898, 2097197, 0, 720898, 2097198, 0, 720898, 2097199, 0, 720898, 2097200, 0, 720898, 2097201, 0, 720898, 2097202, 0, 720898, 2097203, 0, 720898, 2097204, 0, 720898, 2097205, 0, 720898, 2097206, 0, 720898, 2228219, 0, 131077, 2228220, 0, 131077, 2228221, 0, 131077, 2228222, 0, 131077, 2228223, 0, 131077, 2162688, 0, 131077, 2162689, 0, 131077, 2162690, 0, 131077, 2162691, 0, 131077, 2162692, 0, 131077, 2162693, 0, 131077, 2162694, 0, 131077, 2162695, 0, 131077, 2162696, 0, 131077, 2162697, 0, 131077, 2162698, 0, 131077, 2162699, 0, 131077, 2162700, 0, 131077, 2162701, 0, 131077, 2162702, 0, 131077, 2162703, 0, 131077, 2162704, 0, 131077, 2162705, 0, 131077, 2162706, 0, 131077, 2162707, 0, 131077, 2162708, 0, 131077, 2162709, 0, 131077, 2162713, 0, 720898, 2162714, 0, 720898, 2162730, 0, 720898, 2162731, 0, 720898, 2162732, 0, 720898, 2162733, 0, 720898, 2162734, 0, 720898, 2162735, 0, 720898, 2162736, 0, 720898, 2162737, 0, 720898, 2162738, 0, 720898, 2162739, 0, 720898, 2162740, 0, 720898, 2162741, 0, 720898, 2162742, 0, 720898, 2162743, 0, 720898 )

[node name="TileMap2" type="TileMap" parent="."]
position = Vector2( 0, 128 )
tile_set = ExtResource( 1 )
cell_size = Vector2( 32, 32 )
format = 1
tile_data = PoolIntArray( -262144, 0, 393216, -262143, 0, 524290, -262142, 0, 524291, -262141, 0, 393217, -262140, 0, 524290, -262139, 0, 524291, -262138, 0, 393217, -262137, 0, 524290, -262136, 0, 524291, -262135, 0, 393217, -262134, 0, 524290, -262133, 0, 524291, -262132, 0, 393217, -262131, 0, 524290, -262130, 0, 524291, -262129, 0, 393217, -262128, 0, 393218, -262127, 0, 393219, -262111, 0, 524292, -262110, 0, 524293, -262109, 0, 524294, -262108, 0, 524293, -262107, 0, 524293, -262106, 0, 524294, -262105, 0, 524293, -262104, 0, 524293, -262103, 0, 524294, -262102, 0, 524293, -262101, 0, 524295, -262099, 0, 327688, -262098, 0, 393224, -262097, 0, 327688, -262096, 0, 393224, -262095, 0, 393224, -262094, 0, 327688, -262093, 0, 393224, -262092, 0, 393224, -262091, 0, 393224, -262090, 0, 327688, -262089, 0, 327688, -262088, 0, 393224, -262087, 0, 589832, -196608, 0, 393216, -196607, 0, 589826, -196606, 0, 589827, -196605, 0, 393217, -196604, 0, 589826, -196603, 0, 589827, -196602, 0, 393217, -196601, 0, 589826, -196600, 0, 589827, -196599, 0, 393217, -196598, 0, 589826, -196597, 0, 589827, -196596, 0, 393217, -196595, 0, 589826, -196594, 0, 589827, -196593, 0, 393217, -196592, 0, 393218, -196591, 0, 393219, -196575, 0, 458756, -196574, 0, 458757, -196573, 0, 458758, -196572, 0, 458757, -196571, 0, 458757, -196570, 0, 458758, -196569, 0, 458757, -196568, 0, 458757, -196567, 0, 458758, -196566, 0, 458757, -196565, 0, 458759, -196563, 0, 393224, -196562, 0, 327689, -196561, 0, 327690, -196560, 0, 327691, -196559, 0, 393224, -196558, 0, 393224, -196557, 0, 393224, -196556, 0, 327688, -196555, 0, 327689, -196554, 0, 327690, -196553, 0, 327691, -196552, 0, 327688, -196551, 0, 589832, -131072, 0, 393216, -131071, 0, 393217, -131070, 0, 393217, -131069, 0, 393217, -131068, 0, 393217, -131067, 0, 393217, -131066, 0, 393217, -131065, 0, 393217, -131064, 0, 393217, -131063, 0, 393217, -131062, 0, 393217, -131061, 0, 393217, -131060, 0, 393217, -131059, 0, 393217, -131058, 0, 393217, -131057, 0, 393217, -131056, 0, 393218, -131055, 0, 393219, -131039, 0, 524292, -131038, 0, 524293, -131037, 0, 524294, -131036, 0, 524293, -131035, 0, 524293, -131034, 0, 524294, -131033, 0, 524293, -131032, 0, 524293, -131031, 0, 524294, -131030, 0, 524293, -131029, 0, 524295, -131027, 0, 327688, -131026, 0, 458761, -131025, 0, 458762, -131024, 0, 458763, -131023, 0, 327688, -131022, 0, 327688, -131021, 0, 393224, -131020, 0, 393224, -131019, 0, 458761, -131018, 0, 458762, -131017, 0, 458763, -131016, 0, 393224, -131015, 0, 589832, -65536, 0, 393216, -65535, 0, 524290, -65534, 0, 524291, -65533, 0, 393217, -65532, 0, 524290, -65531, 0, 524291, -65530, 0, 393217, -65529, 0, 524290, -65528, 0, 524291, -65527, 0, 393217, -65526, 0, 524290, -65525, 0, 524291, -65524, 0, 393217, -65523, 0, 524290, -65522, 0, 524291, -65521, 0, 393217, -65520, 0, 393218, -65519, 0, 393219, -65503, 0, 458756, -65502, 0, 458757, -65501, 0, 458758, -65500, 0, 458757, -65499, 0, 458757, -65498, 0, 458758, -65497, 0, 458757, -65496, 0, 458757, -65495, 0, 458758, -65494, 0, 458757, -65493, 0, 458759, -65491, 0, 327688, -65490, 0, 393224, -65489, 0, 327688, -65488, 0, 393224, -65487, 0, 393224, -65486, 0, 327688, -65485, 0, 393224, -65484, 0, 393224, -65483, 0, 327688, -65482, 0, 393224, -65481, 0, 327688, -65480, 0, 393224, -65479, 0, 589832, 0, 0, 393216, 1, 0, 589826, 2, 0, 589827, 3, 0, 393217, 4, 0, 589826, 5, 0, 589827, 6, 0, 393217, 7, 0, 589826, 8, 0, 589827, 9, 0, 393217, 10, 0, 589826, 11, 0, 589827, 12, 0, 393217, 13, 0, 589826, 14, 0, 589827, 15, 0, 393217, 16, 0, 393218, 17, 0, 393219, 33, 0, 524292, 34, 0, 524293, 35, 0, 524294, 36, 0, 524293, 37, 0, 524293, 38, 0, 524294, 39, 0, 524293, 40, 0, 524293, 41, 0, 524294, 42, 0, 524293, 43, 0, 524295, 45, 0, 327688, 46, 0, 327689, 47, 0, 327690, 48, 0, 327691, 49, 0, 393224, 50, 0, 393224, 51, 0, 393224, 52, 0, 327688, 53, 0, 327689, 54, 0, 327690, 55, 0, 327691, 56, 0, 327688, 57, 0, 589832, 65536, 0, 393216, 65537, 0, 393217, 65538, 0, 393217, 65539, 0, 393217, 65540, 0, 393217, 65541, 0, 393217, 65542, 0, 393217, 65543, 0, 393217, 65544, 0, 393217, 65545, 0, 393217, 65546, 0, 393217, 65547, 0, 393217, 65548, 0, 393217, 65549, 0, 393217, 65550, 0, 393217, 65551, 0, 393217, 65552, 0, 393218, 65553, 0, 393219, 65569, 0, 458756, 65570, 0, 458757, 65571, 0, 458758, 65572, 0, 458757, 65573, 0, 458757, 65574, 0, 458758, 65575, 0, 458757, 65576, 0, 458757, 65577, 0, 458758, 65578, 0, 458757, 65579, 0, 458759, 65581, 0, 327688, 65582, 0, 458761, 65583, 0, 458762, 65584, 0, 458763, 65585, 0, 327688, 65586, 0, 327688, 65587, 0, 393224, 65588, 0, 327688, 65589, 0, 458761, 65590, 0, 458762, 65591, 0, 458763, 65592, 0, 393224, 65593, 0, 589832, 131072, 0, 393216, 131073, 0, 524290, 131074, 0, 524291, 131075, 0, 393217, 131076, 0, 393217, 131077, 0, 393217, 131078, 0, 393217, 131079, 0, 524290, 131080, 0, 524291, 131081, 0, 393217, 131082, 0, 524290, 131083, 0, 524291, 131084, 0, 393217, 131085, 0, 524290, 131086, 0, 524291, 131087, 0, 393217, 131088, 0, 393218, 131089, 0, 393219, 131090, 0, 9, 131092, 0, 196619, 131093, 0, 11, 131095, 0, 196619, 131096, 0, 11, 131104, 0, 13, 131105, 0, 524292, 131106, 0, 524293, 131107, 0, 524294, 131108, 0, 524293, 131109, 0, 524293, 131110, 0, 524294, 131111, 0, 524293, 131112, 0, 524293, 131113, 0, 524294, 131114, 0, 524293, 131115, 0, 524295, 131117, 0, 393224, 131118, 0, 393224, 131119, 0, 327688, 131120, 0, 393224, 131121, 0, 393224, 131122, 0, 393224, 131123, 0, 393224, 131124, 0, 393224, 131125, 0, 393224, 131126, 0, 327688, 131127, 0, 393224, 131128, 0, 327688, 131129, 0, 589832, 196608, 0, 393216, 196609, 0, 589826, 196610, 0, 589827, 196611, 0, 393217, 196612, 0, 524288, 196613, 0, 524289, 196614, 0, 393217, 196615, 0, 589826, 196616, 0, 589827, 196617, 0, 393217, 196618, 0, 589826, 196619, 0, 589827, 196620, 0, 393217, 196621, 0, 589826, 196622, 0, 589827, 196623, 0, 393217, 196624, 0, 393218, 196625, 0, 393219, 196626, 0, 65545, 196627, 0, 65546, 196628, 0, 65542, 196629, 0, 65547, 196630, 0, 65542, 196631, 0, 65542, 196632, 0, 65547, 196640, 0, 196616, 196642, 0, 589829, 196643, 0, 589830, 196644, 0, 589831, 196645, 0, 589829, 196646, 0, 589830, 196647, 0, 589831, 196648, 0, 589829, 196649, 0, 589830, 196650, 0, 589831, 196651, 0, 589832, 196653, 0, 327688, 196654, 0, 327689, 196655, 0, 327690, 196656, 0, 327691, 196657, 0, 393224, 196658, 0, 327692, 196659, 0, 327693, 196660, 0, 327688, 196661, 0, 327689, 196662, 0, 327690, 196663, 0, 327691, 196664, 0, 327688, 196665, 0, 589832, 262144, 0, 458752, 262145, 0, 458753, 262146, 0, 458753, 262147, 0, 458753, 262148, 0, 589824, 262149, 0, 589825, 262150, 0, 458753, 262151, 0, 458753, 262152, 0, 458753, 262153, 0, 458753, 262154, 0, 458753, 262155, 0, 458753, 262156, 0, 458753, 262157, 0, 458753, 262158, 0, 458753, 262159, 0, 458753, 262160, 0, 458754, 262161, 0, 458755, 262162, 0, 131081, 262176, 0, 65549, 262178, 0, 655365, 262179, 0, 655366, 262180, 0, 655367, 262181, 0, 655365, 262182, 0, 655366, 262183, 0, 655367, 262184, 0, 655365, 262185, 0, 655366, 262186, 0, 655367, 262187, 0, 655368, 262189, 0, 393224, 262190, 0, 393225, 262191, 0, 393226, 262192, 0, 393227, 262193, 0, 327688, 262194, 0, 393228, 262195, 0, 393228, 262196, 0, 327688, 262197, 0, 393225, 262198, 0, 393226, 262199, 0, 393227, 262200, 0, 393224, 262201, 0, 655368, 327698, 0, 196617, 327712, 0, 131085, 393216, 0, 65551, 393217, 0, 393221, 393218, 0, 393222, 393223, 0, 393221, 393224, 0, 393222, 393228, 0, 393220, 393230, 0, 262159, 393231, 0, 262159, 393234, 0, 262153, 393248, 0, 196621, 393250, 0, 393220, 393253, 0, 524300, 393257, 0, 393221, 393258, 0, 393222, 458784, 0, 131083, 524320, 0, 131083, 589856, 0, 262157, 655392, 0, 131083, 720928, 0, 131083, 786464, 0, 14, 983052, 0, 524300, 1048588, 0, 524300, 1048599, 0, 589837, 1048600, 0, 589837, 1048601, 0, 589837, 1048602, 0, 589837, 1114123, 0, 524300, 1114124, 0, 524300, 1114130, 0, 12, 1179666, 0, 131082, 1245202, 0, 131082, 1310738, 0, 12, 1376274, 0, 131082, 1441796, 0, 524300, 1441810, 0, 65548, 1441818, 0, 5, 1441821, 0, 5, 1441824, 0, 8, 1507332, 0, 524300, 1507346, 0, 196620, 1507354, 0, 65541, 1507355, 0, 65542, 1507356, 0, 65542, 1507357, 0, 65541, 1507358, 0, 65542, 1507359, 0, 65543, 1507360, 0, 65544, 1572882, 0, 131084, 1572896, 0, 131080, 1638418, 0, 196620, 1638432, 0, 196616, 1703936, 0, 720898, 1703937, 0, 720898, 1703938, 0, 720898, 1703939, 0, 720898, 1703940, 0, 720898, 1703941, 0, 720898, 1703942, 0, 720898, 1703943, 0, 720898, 1703944, 0, 720898, 1703945, 0, 720898, 1703946, 0, 720898, 1703947, 0, 720898, 1703948, 0, 720898, 1703949, 0, 720898, 1703950, 0, 720898, 1703951, 0, 720898, 1703952, 0, 720898, 1703954, 0, 262156, 1703968, 0, 262152, 1835006, 0, 720898, 1835007, 0, 720898, 1769472, 0, 720898, 1769473, 0, 720898, 1769474, 0, 720898, 1769475, 0, 720898, 1769476, 0, 720898, 1769477, 0, 720898, 1769478, 0, 720898, 1769479, 0, 720898, 1769480, 0, 720898, 1769481, 0, 720898, 1769482, 0, 720898, 1769483, 0, 720898, 1769484, 0, 720898, 1769485, 0, 720898, 1769486, 0, 720898, 1769487, 0, 720898, 1769488, 0, 720898, 1769489, 0, 720898, 1769490, 0, 720898, 1769491, 0, 720898, 1769492, 0, 720898, 1769493, 0, 720898, 1769494, 0, 720898, 1769495, 0, 720898, 1769496, 0, 720898, 1769497, 0, 720898, 1769498, 0, 720898, 1769499, 0, 720898, 1769500, 0, 720898, 1769501, 0, 720898, 1769502, 0, 720898, 1769503, 0, 720898, 1769504, 0, 720898, 1769505, 0, 720898, 1769506, 0, 720898, 1769507, 0, 720898, 1769508, 0, 720898, 1769509, 0, 720898, 1769510, 0, 720898, 1769511, 0, 720898, 1769512, 0, 720898, 1769513, 0, 720898, 1769514, 0, 720898, 1769515, 0, 720898, 1769516, 0, 720898, 1769517, 0, 720898, 1769518, 0, 720898, 1769519, 0, 720898, 1769520, 0, 720898, 1769521, 0, 720898, 1769522, 0, 720898, 1769523, 0, 720898, 1900542, 0, 720898, 1900543, 0, 720898, 1835008, 0, 720898, 1835009, 0, 720898, 1835010, 0, 720898, 1835011, 0, 720898, 1835012, 0, 720898, 1835013, 0, 720898, 1835014, 0, 720898, 1835015, 0, 720898, 1835016, 0, 720898, 1835017, 0, 720898, 1835018, 0, 720898, 1835019, 0, 720898, 1835020, 0, 720898, 1835021, 0, 720898, 1835022, 0, 720898, 1835023, 0, 720898, 1835024, 0, 720898, 1835025, 0, 720898, 1835026, 0, 720898, 1835027, 0, 720898, 1835028, 0, 720898, 1835029, 0, 720898, 1835030, 0, 720898, 1835031, 0, 720898, 1835032, 0, 720898, 1835033, 0, 720898, 1835034, 0, 720898, 1835035, 0, 720898, 1835036, 0, 720898, 1835037, 0, 720898, 1835038, 0, 720898, 1835039, 0, 720898, 1835040, 0, 720898, 1835041, 0, 720898, 1835042, 0, 720898, 1835043, 0, 720898, 1835044, 0, 720898, 1835045, 0, 720898, 1835046, 0, 720898, 1835049, 0, 720898, 1835050, 0, 720898, 1835051, 0, 720898, 1835052, 0, 720898, 1835053, 0, 720898, 1835054, 0, 720898, 1835055, 0, 720898, 1835056, 0, 720898, 1835057, 0, 720898, 1835058, 0, 720898, 1835059, 0, 720898, 1966079, 0, 720898, 1900544, 0, 720898, 1900545, 0, 720898, 1900546, 0, 720898, 1900547, 0, 720898, 1900548, 0, 720898, 1900549, 0, 720898, 1900550, 0, 720898, 1900551, 0, 720898, 1900552, 0, 720898, 1900553, 0, 720898, 1900554, 0, 720898, 1900555, 0, 720898, 1900556, 0, 720898, 1900557, 0, 720898, 1900558, 0, 720898, 1900559, 0, 720898, 1900560, 0, 720898, 1900561, 0, 720898, 1900562, 0, 720898, 1900563, 0, 720898, 1900564, 0, 720898, 1900565, 0, 720898, 1900566, 0, 720898, 1900567, 0, 720898, 1900568, 0, 720898, 1900569, 0, 720898, 1900570, 0, 720898, 1900571, 0, 720898, 1900576, 0, 720898, 1900577, 0, 720898, 1900578, 0, 720898, 1900579, 0, 720898, 1900580, 0, 720898, 1900581, 0, 720898, 1900582, 0, 720898, 1900583, 0, 720898, 1900584, 0, 720898, 1900585, 0, 720898, 1900586, 0, 720898, 1900587, 0, 720898, 1900588, 0, 720898, 1900589, 0, 720898, 1900590, 0, 720898, 1900591, 0, 720898, 1900592, 0, 720898, 1900593, 0, 720898, 1900594, 0, 720898, 1900595, 0, 720898, 2031614, 0, 720898, 2031615, 0, 720898, 1966080, 0, 720898, 1966081, 0, 720898, 1966082, 0, 720898, 1966083, 0, 720898, 1966084, 0, 720898, 1966085, 0, 720898, 1966086, 0, 720898, 1966087, 0, 720898, 1966088, 0, 720898, 1966089, 0, 720898, 1966090, 0, 720898, 1966091, 0, 720898, 1966092, 0, 720898, 1966093, 0, 720898, 1966094, 0, 720898, 1966095, 0, 720898, 1966096, 0, 720898, 1966097, 0, 720898, 1966098, 0, 720898, 1966099, 0, 720898, 1966100, 0, 720898, 1966101, 0, 720898, 1966102, 0, 720898, 1966103, 0, 720898, 1966104, 0, 720898, 1966105, 0, 720898, 1966106, 0, 720898, 1966107, 0, 720898, 1966108, 0, 720898, 1966109, 0, 720898, 1966110, 0, 720898, 1966111, 0, 720898, 1966112, 0, 720898, 1966113, 0, 720898, 1966114, 0, 720898, 1966115, 0, 720898, 1966116, 0, 720898, 1966117, 0, 720898, 1966118, 0, 720898, 1966119, 0, 720898, 1966120, 0, 720898, 1966121, 0, 720898, 1966122, 0, 720898, 1966123, 0, 720898, 1966124, 0, 720898, 1966125, 0, 720898, 1966126, 0, 720898, 1966127, 0, 720898, 1966128, 0, 720898, 1966129, 0, 720898, 1966130, 0, 720898, 1966131, 0, 720898, 1966132, 0, 720898, 1966133, 0, 720898, 1966134, 0, 720898, 2097151, 0, 720898, 2031616, 0, 720898, 2031617, 0, 720898, 2031618, 0, 720898, 2031619, 0, 720898, 2031620, 0, 720898, 2031621, 0, 720898, 2031622, 0, 720898, 2031623, 0, 720898, 2031624, 0, 720898, 2031625, 0, 720898, 2031626, 0, 720898, 2031627, 0, 720898, 2031628, 0, 720898, 2031629, 0, 720898, 2031630, 0, 720898, 2031631, 0, 720898, 2031632, 0, 720898, 2031633, 0, 720898, 2031634, 0, 720898, 2031635, 0, 720898, 2031636, 0, 720898, 2031637, 0, 720898, 2031638, 0, 720898, 2031639, 0, 720898, 2031640, 0, 720898, 2031641, 0, 720898, 2031642, 0, 720898, 2031643, 0, 720898, 2031644, 0, 720898, 2031645, 0, 720898, 2031646, 0, 720898, 2031647, 0, 131077, 2031651, 0, 720898, 2031652, 0, 720898, 2031653, 0, 720898, 2031654, 0, 720898, 2031662, 0, 720898, 2031663, 0, 720898, 2031664, 0, 720898, 2031665, 0, 720898, 2031666, 0, 720898, 2031667, 0, 720898, 2031668, 0, 720898, 2162682, 0, 720898, 2162683, 0, 720898, 2162684, 0, 720898, 2162685, 0, 720898, 2162686, 0, 720898, 2162687, 0, 720898, 2097152, 0, 720898, 2097153, 0, 720898, 2097154, 0, 720898, 2097155, 0, 720898, 2097156, 0, 720898, 2097157, 0, 720898, 2097158, 0, 720898, 2097159, 0, 720898, 2097160, 0, 720898, 2097161, 0, 720898, 2097162, 0, 720898, 2097163, 0, 720898, 2097164, 0, 720898, 2097165, 0, 720898, 2097166, 0, 720898, 2097167, 0, 720898, 2097168, 0, 720898, 2097169, 0, 720898, 2097170, 0, 720898, 2097171, 0, 720898, 2097172, 0, 720898, 2097173, 0, 720898, 2097174, 0, 720898, 2097175, 0, 720898, 2097176, 0, 720898, 2097177, 0, 720898, 2097178, 0, 720898, 2097179, 0, 720898, 2097180, 0, 720898, 2097181, 0, 720898, 2097182, 0, 720898, 2097183, 0, 720898, 2097184, 0, 720898, 2097185, 0, 720898, 2097186, 0, 720898, 2097187, 0, 720898, 2097188, 0, 720898, 2097189, 0, 720898, 2097190, 0, 720898, 2097191, 0, 720898, 2097192, 0, 720898, 2097193, 0, 720898, 2097194, 0, 720898, 2097195, 0, 720898, 2097196, 0, 720898, 2097197, 0, 720898, 2097198, 0, 720898, 2097199, 0, 720898, 2097200, 0, 720898, 2097201, 0, 720898, 2097202, 0, 720898, 2097203, 0, 720898, 2097204, 0, 720898, 2097205, 0, 720898, 2228223, 0, 720898, 2162688, 0, 720898, 2162689, 0, 720898, 2162690, 0, 720898, 2162691, 0, 720898, 2162692, 0, 720898, 2162693, 0, 720898, 2162694, 0, 720898, 2162695, 0, 720898, 2162696, 0, 720898, 2162697, 0, 720898, 2162698, 0, 720898, 2162699, 0, 720898, 2162700, 0, 720898, 2162701, 0, 720898, 2162702, 0, 720898, 2162703, 0, 720898, 2162704, 0, 720898, 2162705, 0, 720898, 2162706, 0, 720898, 2162707, 0, 720898, 2162722, 0, 720898, 2162723, 0, 720898, 2162724, 0, 720898, 2162725, 0, 720898, 2162726, 0, 720898, 2162727, 0, 720898, 2162728, 0, 720898, 2162729, 0, 720898, 2162730, 0, 720898, 2162731, 0, 720898, 2162732, 0, 720898, 2162733, 0, 720898, 2162734, 0, 720898, 2162735, 0, 720898, 2162736, 0, 720898, 2162737, 0, 720898, 2162738, 0, 720898, 2162739, 0, 720898, 2162740, 0, 720898, 2162741, 0, 720898 )
